#
# A fatal error has been detected by the Java Runtime Environment:
#
#  SIGSEGV (0xb) at pc=0x00007ff202e08014, pid=26501, tid=0x00007ff2044d5700
#
# JRE version: OpenJDK Runtime Environment (8.0_111-b14) (build 1.8.0_111-8u111-b14-2ubuntu0.16.04.2-b14)
# Java VM: OpenJDK 64-Bit Server VM (25.111-b14 mixed mode linux-amd64 compressed oops)
# Problematic frame:
# V  [libjvm.so+0x678014]
#
# Failed to write core dump. Core dumps have been disabled. To enable core dumping, try "ulimit -c unlimited" before starting Java again
#
# If you would like to submit a bug report, please visit:
#   http://bugreport.java.com/bugreport/crash.jsp
#

---------------  T H R E A D  ---------------

Current thread (0x00007ff1fc00a000):  JavaThread "main" [_thread_in_vm, id=26505, stack(0x00007ff2043d5000,0x00007ff2044d6000)]

siginfo: si_signo: 11 (SIGSEGV), si_code: 1 (SEGV_MAPERR), si_addr: 0x0000000000000000

Registers:
RAX=0x00007ff2036a4ec4, RBX=0x00007ff1fc00a000, RCX=0x0000000000000000, RDX=0x00007ff2036a390a
RSP=0x00007ff2044d4000, RBP=0x00007ff2044d4080, RSI=0x0000000000000000, RDI=0x00007ff1fc00a000
R8 =0x0000000000000000, R9 =0x00000000db497098, R10=0x00007ff1ed017748, R11=0x00007ff2030e98c0
R12=0x0000000000000000, R13=0x0000000000000000, R14=0x00007ff1fc00a1e0, R15=0x00007ff1fc00a000
RIP=0x00007ff202e08014, EFLAGS=0x0000000000010246, CSGSFS=0x0000000000000033, ERR=0x0000000000000004
  TRAPNO=0x000000000000000e

Top of Stack: (sp=0x00007ff2044d4000)
0x00007ff2044d4000:   00007ff1fc00a000 0000000000000000
0x00007ff2044d4010:   00000000d9b840f0 0000000000000000
0x00007ff2044d4020:   0000000000000000 0000000000000000
0x00007ff2044d4030:   00007ff2044d4288 00000000db497060
0x00007ff2044d4040:   0000000000000001 525414c5d7ea6d00
0x00007ff2044d4050:   0000000000000019 00007ff1fc210a98
0x00007ff2044d4060:   0000000000000000 00007ff1ec87df08
0x00007ff2044d4070:   00007ff2044d4130 00007ff1fc00a000
0x00007ff2044d4080:   00007ff2044d4100 00007ff1de655fd2
0x00007ff2044d4090:   00007ff1ec87df08 00007ff1ed017774
0x00007ff2044d40a0:   000000000000000f 00007ff1ed1eb725
0x00007ff2044d40b0:   00007ff2044d4338 00007ff1ed565f94
0x00007ff2044d40c0:   00007ff2044d40c0 0000000000000000
0x00007ff2044d40d0:   00007ff2044d4130 00007ff1ec8b6548
0x00007ff2044d40e0:   0000000000000000 00007ff1ec87df08
0x00007ff2044d40f0:   0000000000000000 00007ff2044d4120
0x00007ff2044d4100:   00007ff2044d4178 00007ff1ed007b10
0x00007ff2044d4110:   0000000087412640 00007ff1ed011277
0x00007ff2044d4120:   0000000000000000 00007ff1fc210a98
0x00007ff2044d4130:   0000000000000001 00007ff2044d4138
0x00007ff2044d4140:   00007ff1ec895c0a 00007ff2044d41b0
0x00007ff2044d4150:   00007ff1ec8b6548 0000000000000000
0x00007ff2044d4160:   00007ff1ec895c40 00007ff2044d4120
0x00007ff2044d4170:   00007ff2044d41a0 00007ff2044d4208
0x00007ff2044d4180:   00007ff1ed007b10 0000000000000000
0x00007ff2044d4190:   0000000000000000 0000000000000000
0x00007ff2044d41a0:   0000000000000000 00007ff1fc210a98
0x00007ff2044d41b0:   00000000db5421d8 00000000db5421d8
0x00007ff2044d41c0:   00000000d9b84310 00007ff2044d41c8
0x00007ff2044d41d0:   00007ff1ec85fdcf 00007ff2044d4228
0x00007ff2044d41e0:   00007ff1dcebdc78 0000000000000000
0x00007ff2044d41f0:   00007ff1ec85fde0 00007ff2044d41a0 

Instructions: (pc=0x00007ff202e08014)
0x00007ff202e07ff4:   08 00 48 89 5d 80 74 09 48 8d 7d 80 e8 2b 26 29
0x00007ff202e08004:   00 90 48 8d 15 fd b8 89 00 48 8d 05 b0 ce 89 00
0x00007ff202e08014:   4d 8b 34 24 80 3a 00 48 63 00 74 20 41 8b 04 06
0x00007ff202e08024:   85 c0 0f 84 b4 00 00 00 48 8d 15 3d d9 87 00 8b 

Register to memory mapping:

RAX=0x00007ff2036a4ec4: <offset 0xf14ec4> in /usr/lib/jvm/java-8-openjdk-amd64/jre/lib/amd64/server/libjvm.so at 0x00007ff202790000
RBX=0x00007ff1fc00a000 is a thread
RCX=0x0000000000000000 is an unknown value
RDX=0x00007ff2036a390a: <offset 0xf1390a> in /usr/lib/jvm/java-8-openjdk-amd64/jre/lib/amd64/server/libjvm.so at 0x00007ff202790000
RSP=0x00007ff2044d4000 is pointing into the stack for thread: 0x00007ff1fc00a000
RBP=0x00007ff2044d4080 is pointing into the stack for thread: 0x00007ff1fc00a000
RSI=0x0000000000000000 is an unknown value
RDI=0x00007ff1fc00a000 is a thread
R8 =0x0000000000000000 is an unknown value
R9 =0x00000000db497098 is an oop
java.io.FileDescriptor 
 - klass: 'java/io/FileDescriptor'
R10=0x00007ff1ed017748 is at code_begin+808 in an Interpreter codelet
method entry point (kind = native)  [0x00007ff1ed017420, 0x00007ff1ed017d20]  2304 bytes
R11=0x00007ff2030e98c0: <offset 0x9598c0> in /usr/lib/jvm/java-8-openjdk-amd64/jre/lib/amd64/server/libjvm.so at 0x00007ff202790000
R12=0x0000000000000000 is an unknown value
R13=0x0000000000000000 is an unknown value
R14=0x00007ff1fc00a1e0 is an unknown value
R15=0x00007ff1fc00a000 is a thread


Stack: [0x00007ff2043d5000,0x00007ff2044d6000],  sp=0x00007ff2044d4000,  free space=1020k
Native frames: (J=compiled Java code, j=interpreted, Vv=VM code, C=native code)
V  [libjvm.so+0x678014]
C  [libz3java.so+0x1afd2]  Java_com_microsoft_z3_Native_INTERNALmkStringSymbol+0x12
j  com.microsoft.z3.Native.mkStringSymbol(JLjava/lang/String;)J+2
j  com.microsoft.z3.StringSymbol.<init>(Lcom/microsoft/z3/Context;Ljava/lang/String;)V+7
j  com.microsoft.z3.Context.mkSymbol(Ljava/lang/String;)Lcom/microsoft/z3/StringSymbol;+6
j  com.microsoft.z3.Context.mkConst(Ljava/lang/String;Lcom/microsoft/z3/Sort;)Lcom/microsoft/z3/Expr;+3
j  com.microsoft.z3.Context.mkIntConst(Ljava/lang/String;)Lcom/microsoft/z3/IntExpr;+6
j  e0210.SymbolicExecution.generatePartialOrderConstraints()V+482
j  e0210.SymbolicExecution.internalTransform(Ljava/lang/String;Ljava/util/Map;)V+539
j  soot.SceneTransformer.transform(Ljava/lang/String;Ljava/util/Map;)V+13
j  soot.Transform.apply()V+94
j  soot.ScenePack.internalApply()V+25
j  soot.Pack.apply()V+19
j  soot.PackManager.runWholeProgramPacks()V+78
j  soot.PackManager.runPacksNormally()V+49
j  soot.PackManager.runPacks()V+17
j  soot.Main.run([Ljava/lang/String;)V+196
j  soot.Main.main([Ljava/lang/String;)V+4
j  e0210.TraceMaker.sootMainSymbolicExecution(Ljava/lang/String;Ljava/lang/String;)V+301
j  e0210.TraceMaker.main([Ljava/lang/String;)V+469
v  ~StubRoutines::call_stub
V  [libjvm.so+0x66088b]
V  [libjvm.so+0x6825ce]
V  [libjvm.so+0x684eff]
C  [libjli.so+0x3552]
C  [libjli.so+0x73dd]
C  [libpthread.so.0+0x770a]  start_thread+0xca

Java frames: (J=compiled Java code, j=interpreted, Vv=VM code)
j  com.microsoft.z3.Native.INTERNALmkStringSymbol(JLjava/lang/String;)J+0
j  com.microsoft.z3.Native.mkStringSymbol(JLjava/lang/String;)J+2
j  com.microsoft.z3.StringSymbol.<init>(Lcom/microsoft/z3/Context;Ljava/lang/String;)V+7
j  com.microsoft.z3.Context.mkSymbol(Ljava/lang/String;)Lcom/microsoft/z3/StringSymbol;+6
j  com.microsoft.z3.Context.mkConst(Ljava/lang/String;Lcom/microsoft/z3/Sort;)Lcom/microsoft/z3/Expr;+3
j  com.microsoft.z3.Context.mkIntConst(Ljava/lang/String;)Lcom/microsoft/z3/IntExpr;+6
j  e0210.SymbolicExecution.generatePartialOrderConstraints()V+482
j  e0210.SymbolicExecution.internalTransform(Ljava/lang/String;Ljava/util/Map;)V+539
j  soot.SceneTransformer.transform(Ljava/lang/String;Ljava/util/Map;)V+13
j  soot.Transform.apply()V+94
j  soot.ScenePack.internalApply()V+25
j  soot.Pack.apply()V+19
j  soot.PackManager.runWholeProgramPacks()V+78
j  soot.PackManager.runPacksNormally()V+49
j  soot.PackManager.runPacks()V+17
j  soot.Main.run([Ljava/lang/String;)V+196
j  soot.Main.main([Ljava/lang/String;)V+4
j  e0210.TraceMaker.sootMainSymbolicExecution(Ljava/lang/String;Ljava/lang/String;)V+301
j  e0210.TraceMaker.main([Ljava/lang/String;)V+469
v  ~StubRoutines::call_stub

---------------  P R O C E S S  ---------------

Java Threads: ( => current thread )
  0x00007ff1fc0c1000 JavaThread "Service Thread" daemon [_thread_blocked, id=26517, stack(0x00007ff1dea15000,0x00007ff1deb16000)]
  0x00007ff1fc0b1800 JavaThread "C1 CompilerThread2" daemon [_thread_blocked, id=26516, stack(0x00007ff1deb16000,0x00007ff1dec17000)]
  0x00007ff1fc0af800 JavaThread "C2 CompilerThread1" daemon [_thread_in_native, id=26515, stack(0x00007ff1dec17000,0x00007ff1ded18000)]
  0x00007ff1fc0ac800 JavaThread "C2 CompilerThread0" daemon [_thread_in_native, id=26514, stack(0x00007ff1ded18000,0x00007ff1dee19000)]
  0x00007ff1fc0aa800 JavaThread "Signal Dispatcher" daemon [_thread_blocked, id=26513, stack(0x00007ff1dee19000,0x00007ff1def1a000)]
  0x00007ff1fc083800 JavaThread "Finalizer" daemon [_thread_blocked, id=26512, stack(0x00007ff1df1f2000,0x00007ff1df2f3000)]
  0x00007ff1fc07f000 JavaThread "Reference Handler" daemon [_thread_blocked, id=26511, stack(0x00007ff1df2f3000,0x00007ff1df3f4000)]
=>0x00007ff1fc00a000 JavaThread "main" [_thread_in_vm, id=26505, stack(0x00007ff2043d5000,0x00007ff2044d6000)]

Other Threads:
  0x00007ff1fc077000 VMThread [stack: 0x00007ff1df3f4000,0x00007ff1df4f5000] [id=26510]
  0x00007ff1fc0c3800 WatcherThread [stack: 0x00007ff1de914000,0x00007ff1dea15000] [id=26518]

VM state:not at safepoint (normal execution)

VM Mutex/Monitor currently owned by a thread: None

Heap:
 PSYoungGen      total 67584K, used 42527K [0x00000000d7780000, 0x00000000dfb80000, 0x0000000100000000)
  eden space 62464K, 59% used [0x00000000d7780000,0x00000000d9c0bdf0,0x00000000db480000)
  from space 5120K, 99% used [0x00000000db480000,0x00000000db97c030,0x00000000db980000)
  to   space 5120K, 0% used [0x00000000df680000,0x00000000df680000,0x00000000dfb80000)
 ParOldGen       total 83456K, used 34077K [0x0000000086600000, 0x000000008b780000, 0x00000000d7780000)
  object space 83456K, 40% used [0x0000000086600000,0x00000000887474a8,0x000000008b780000)
 Metaspace       used 10193K, capacity 10238K, committed 10368K, reserved 1058816K
  class space    used 1100K, capacity 1134K, committed 1152K, reserved 1048576K

Card table byte_map: [0x00007ff2006d0000,0x00007ff200a9e000] byte_map_base: 0x00007ff20029d000

Marking Bits: (ParMarkBitMap*) 0x00007ff2036ad220
 Begin Bits: [0x00007ff1e4330000, 0x00007ff1e6198000)
 End Bits:   [0x00007ff1e6198000, 0x00007ff1e8000000)

Polling page: 0x00007ff2044ff000

CodeCache: size=245760Kb used=5589Kb max_used=5601Kb free=240170Kb
 bounds [0x00007ff1ed000000, 0x00007ff1ed580000, 0x00007ff1fc000000]
 total_blobs=1939 nmethods=1612 adapters=241
 compilation: enabled

Compilation events (10 events):
Event: 2.034 Thread 0x00007ff1fc0b1800 nmethod 1613 0x00007ff1ed570690 code [0x00007ff1ed570840, 0x00007ff1ed570c28]
Event: 2.034 Thread 0x00007ff1fc0b1800 1612       3       java.lang.System::getProperty (25 bytes)
Event: 2.035 Thread 0x00007ff1fc0b1800 nmethod 1612 0x00007ff1ed570d90 code [0x00007ff1ed570f60, 0x00007ff1ed571548]
Event: 2.035 Thread 0x00007ff1fc0b1800 1610       1       soot.util.HashChain$Link::getPrevious (5 bytes)
Event: 2.036 Thread 0x00007ff1fc0b1800 nmethod 1610 0x00007ff1ed571810 code [0x00007ff1ed571960, 0x00007ff1ed571a70]
Event: 2.036 Thread 0x00007ff1fc0b1800 1614       3       java.io.BufferedWriter::newLine (9 bytes)
Event: 2.036 Thread 0x00007ff1fc0b1800 nmethod 1614 0x00007ff1ed571ad0 code [0x00007ff1ed571c60, 0x00007ff1ed571fc8]
Event: 2.036 Thread 0x00007ff1fc0b1800 1615   !   3       java.io.PrintStream::newLine (73 bytes)
Event: 2.037 Thread 0x00007ff1fc0b1800 nmethod 1615 0x00007ff1ed5724d0 code [0x00007ff1ed5726e0, 0x00007ff1ed5730f8]
Event: 2.037 Thread 0x00007ff1fc0b1800 1620       3       com.microsoft.z3.enumerations.Z3_error_code::fromInt (43 bytes)

GC Heap History (6 events):
Event: 0.456 GC heap before
{Heap before GC invocations=1 (full 0):
 PSYoungGen      total 36352K, used 31232K [0x00000000d7780000, 0x00000000da000000, 0x0000000100000000)
  eden space 31232K, 100% used [0x00000000d7780000,0x00000000d9600000,0x00000000d9600000)
  from space 5120K, 0% used [0x00000000d9b00000,0x00000000d9b00000,0x00000000da000000)
  to   space 5120K, 0% used [0x00000000d9600000,0x00000000d9600000,0x00000000d9b00000)
 ParOldGen       total 83456K, used 0K [0x0000000086600000, 0x000000008b780000, 0x00000000d7780000)
  object space 83456K, 0% used [0x0000000086600000,0x0000000086600000,0x000000008b780000)
 Metaspace       used 6610K, capacity 7254K, committed 7424K, reserved 1056768K
  class space    used 683K, capacity 718K, committed 768K, reserved 1048576K
Event: 0.470 GC heap after
Heap after GC invocations=1 (full 0):
 PSYoungGen      total 36352K, used 5088K [0x00000000d7780000, 0x00000000dbe80000, 0x0000000100000000)
  eden space 31232K, 0% used [0x00000000d7780000,0x00000000d7780000,0x00000000d9600000)
  from space 5120K, 99% used [0x00000000d9600000,0x00000000d9af8020,0x00000000d9b00000)
  to   space 5120K, 0% used [0x00000000db980000,0x00000000db980000,0x00000000dbe80000)
 ParOldGen       total 83456K, used 3206K [0x0000000086600000, 0x000000008b780000, 0x00000000d7780000)
  object space 83456K, 3% used [0x0000000086600000,0x0000000086921810,0x000000008b780000)
 Metaspace       used 6610K, capacity 7254K, committed 7424K, reserved 1056768K
  class space    used 683K, capacity 718K, committed 768K, reserved 1048576K
}
Event: 0.733 GC heap before
{Heap before GC invocations=2 (full 0):
 PSYoungGen      total 36352K, used 36320K [0x00000000d7780000, 0x00000000dbe80000, 0x0000000100000000)
  eden space 31232K, 100% used [0x00000000d7780000,0x00000000d9600000,0x00000000d9600000)
  from space 5120K, 99% used [0x00000000d9600000,0x00000000d9af8020,0x00000000d9b00000)
  to   space 5120K, 0% used [0x00000000db980000,0x00000000db980000,0x00000000dbe80000)
 ParOldGen       total 83456K, used 3206K [0x0000000086600000, 0x000000008b780000, 0x00000000d7780000)
  object space 83456K, 3% used [0x0000000086600000,0x0000000086921810,0x000000008b780000)
 Metaspace       used 7384K, capacity 7958K, committed 8320K, reserved 1056768K
  class space    used 742K, capacity 782K, committed 896K, reserved 1048576K
Event: 0.762 GC heap after
Heap after GC invocations=2 (full 0):
 PSYoungGen      total 67584K, used 5094K [0x00000000d7780000, 0x00000000dbe80000, 0x0000000100000000)
  eden space 62464K, 0% used [0x00000000d7780000,0x00000000d7780000,0x00000000db480000)
  from space 5120K, 99% used [0x00000000db980000,0x00000000dbe79ac8,0x00000000dbe80000)
  to   space 5120K, 0% used [0x00000000db480000,0x00000000db480000,0x00000000db980000)
 ParOldGen       total 83456K, used 12592K [0x0000000086600000, 0x000000008b780000, 0x00000000d7780000)
  object space 83456K, 15% used [0x0000000086600000,0x000000008724c090,0x000000008b780000)
 Metaspace       used 7384K, capacity 7958K, committed 8320K, reserved 1056768K
  class space    used 742K, capacity 782K, committed 896K, reserved 1048576K
}
Event: 1.355 GC heap before
{Heap before GC invocations=3 (full 0):
 PSYoungGen      total 67584K, used 67558K [0x00000000d7780000, 0x00000000dbe80000, 0x0000000100000000)
  eden space 62464K, 100% used [0x00000000d7780000,0x00000000db480000,0x00000000db480000)
  from space 5120K, 99% used [0x00000000db980000,0x00000000dbe79ac8,0x00000000dbe80000)
  to   space 5120K, 0% used [0x00000000db480000,0x00000000db480000,0x00000000db980000)
 ParOldGen       total 83456K, used 12592K [0x0000000086600000, 0x000000008b780000, 0x00000000d7780000)
  object space 83456K, 15% used [0x0000000086600000,0x000000008724c090,0x000000008b780000)
 Metaspace       used 7504K, capacity 8022K, committed 8320K, reserved 1056768K
  class space    used 743K, capacity 782K, committed 896K, reserved 1048576K
Event: 1.409 GC heap after
Heap after GC invocations=3 (full 0):
 PSYoungGen      total 67584K, used 5104K [0x00000000d7780000, 0x00000000dfb80000, 0x0000000100000000)
  eden space 62464K, 0% used [0x00000000d7780000,0x00000000d7780000,0x00000000db480000)
  from space 5120K, 99% used [0x00000000db480000,0x00000000db97c030,0x00000000db980000)
  to   space 5120K, 0% used [0x00000000df680000,0x00000000df680000,0x00000000dfb80000)
 ParOldGen       total 83456K, used 34077K [0x0000000086600000, 0x000000008b780000, 0x00000000d7780000)
  object space 83456K, 40% used [0x0000000086600000,0x00000000887474a8,0x000000008b780000)
 Metaspace       used 7504K, capacity 8022K, committed 8320K, reserved 1056768K
  class space    used 743K, capacity 782K, committed 896K, reserved 1048576K
}

Deoptimization events (10 events):
Event: 1.799 Thread 0x00007ff1fc00a000 Uncommon trap: reason=bimorphic action=maybe_recompile pc=0x00007ff1ed2a6fac method=java.util.HashMap.putVal(ILjava/lang/Object;Ljava/lang/Object;ZZ)Ljava/lang/Object; @ 91
Event: 1.799 Thread 0x00007ff1fc00a000 Uncommon trap: reason=class_check action=maybe_recompile pc=0x00007ff1ed2a6f60 method=java.util.HashMap.putVal(ILjava/lang/Object;Ljava/lang/Object;ZZ)Ljava/lang/Object; @ 203
Event: 1.799 Thread 0x00007ff1fc00a000 Uncommon trap: reason=class_check action=maybe_recompile pc=0x00007ff1ed2a6f60 method=java.util.HashMap.putVal(ILjava/lang/Object;Ljava/lang/Object;ZZ)Ljava/lang/Object; @ 203
Event: 1.799 Thread 0x00007ff1fc00a000 Uncommon trap: reason=bimorphic action=maybe_recompile pc=0x00007ff1ed2a6fac method=java.util.HashMap.putVal(ILjava/lang/Object;Ljava/lang/Object;ZZ)Ljava/lang/Object; @ 91
Event: 1.799 Thread 0x00007ff1fc00a000 Uncommon trap: reason=bimorphic action=maybe_recompile pc=0x00007ff1ed2a6fac method=java.util.HashMap.putVal(ILjava/lang/Object;Ljava/lang/Object;ZZ)Ljava/lang/Object; @ 91
Event: 1.799 Thread 0x00007ff1fc00a000 Uncommon trap: reason=class_check action=maybe_recompile pc=0x00007ff1ed2a6f60 method=java.util.HashMap.putVal(ILjava/lang/Object;Ljava/lang/Object;ZZ)Ljava/lang/Object; @ 203
Event: 1.807 Thread 0x00007ff1fc00a000 Uncommon trap: reason=unstable_if action=reinterpret pc=0x00007ff1ed46bd3c method=soot.util.HashChain$LinkIterator.hasNext()Z @ 27
Event: 1.812 Thread 0x00007ff1fc00a000 Uncommon trap: reason=class_check action=maybe_recompile pc=0x00007ff1ed2f9c00 method=java.util.Collections$UnmodifiableCollection.size()I @ 4
Event: 1.812 Thread 0x00007ff1fc00a000 Uncommon trap: reason=class_check action=maybe_recompile pc=0x00007ff1ed2f9c00 method=java.util.Collections$UnmodifiableCollection.size()I @ 4
Event: 1.813 Thread 0x00007ff1fc00a000 Uncommon trap: reason=unstable_if action=reinterpret pc=0x00007ff1ed2f8f10 method=soot.util.HashChain$LinkIterator.hasNext()Z @ 27

Internal exceptions (8 events):
Event: 0.038 Thread 0x00007ff1fc00a000 Exception <a 'java/lang/NoSuchMethodError': Method sun.misc.Unsafe.defineClass(Ljava/lang/String;[BII)Ljava/lang/Class; name or signature does not match> (0x00000000d7787c78) thrown at [/build/openjdk-8-8jAw7G/openjdk-8-8u111-b14/src/hotspot/src/share/vm/
Event: 0.038 Thread 0x00007ff1fc00a000 Exception <a 'java/lang/NoSuchMethodError': Method sun.misc.Unsafe.prefetchRead(Ljava/lang/Object;J)V name or signature does not match> (0x00000000d7787f60) thrown at [/build/openjdk-8-8jAw7G/openjdk-8-8u111-b14/src/hotspot/src/share/vm/prims/jni.cpp, lin
Event: 0.128 Thread 0x00007ff1fc00a000 Exception <a 'java/security/PrivilegedActionException'> (0x00000000d783d330) thrown at [/build/openjdk-8-8jAw7G/openjdk-8-8u111-b14/src/hotspot/src/share/vm/prims/jvm.cpp, line 1386]
Event: 0.128 Thread 0x00007ff1fc00a000 Exception <a 'java/security/PrivilegedActionException'> (0x00000000d783d728) thrown at [/build/openjdk-8-8jAw7G/openjdk-8-8u111-b14/src/hotspot/src/share/vm/prims/jvm.cpp, line 1386]
Event: 0.129 Thread 0x00007ff1fc00a000 Exception <a 'java/security/PrivilegedActionException'> (0x00000000d783f978) thrown at [/build/openjdk-8-8jAw7G/openjdk-8-8u111-b14/src/hotspot/src/share/vm/prims/jvm.cpp, line 1386]
Event: 0.129 Thread 0x00007ff1fc00a000 Exception <a 'java/security/PrivilegedActionException'> (0x00000000d783fd70) thrown at [/build/openjdk-8-8jAw7G/openjdk-8-8u111-b14/src/hotspot/src/share/vm/prims/jvm.cpp, line 1386]
Event: 0.129 Thread 0x00007ff1fc00a000 Exception <a 'java/security/PrivilegedActionException'> (0x00000000d7840a28) thrown at [/build/openjdk-8-8jAw7G/openjdk-8-8u111-b14/src/hotspot/src/share/vm/prims/jvm.cpp, line 1386]
Event: 0.129 Thread 0x00007ff1fc00a000 Exception <a 'java/security/PrivilegedActionException'> (0x00000000d7840e20) thrown at [/build/openjdk-8-8jAw7G/openjdk-8-8u111-b14/src/hotspot/src/share/vm/prims/jvm.cpp, line 1386]

Events (10 events):
Event: 1.993 loading class com/microsoft/z3/enumerations/Z3_ast_kind
Event: 1.993 loading class com/microsoft/z3/enumerations/Z3_ast_kind done
Event: 1.994 loading class com/microsoft/z3/enumerations/Z3_sort_kind
Event: 1.994 loading class com/microsoft/z3/enumerations/Z3_sort_kind done
Event: 1.994 loading class com/microsoft/z3/Expr$1
Event: 1.994 loading class com/microsoft/z3/Expr$1 done
Event: 2.007 loading class soot/util/StringTools
Event: 2.007 loading class soot/util/StringTools done
Event: 2.007 loading class java/text/CharacterIterator
Event: 2.007 loading class java/text/CharacterIterator done


Dynamic libraries:
00400000-00401000 r-xp 00000000 08:05 3542625                            /usr/lib/jvm/java-8-openjdk-amd64/jre/bin/java
00600000-00601000 r--p 00000000 08:05 3542625                            /usr/lib/jvm/java-8-openjdk-amd64/jre/bin/java
00601000-00602000 rw-p 00001000 08:05 3542625                            /usr/lib/jvm/java-8-openjdk-amd64/jre/bin/java
008dd000-008fe000 rw-p 00000000 00:00 0                                  [heap]
86600000-8b780000 rw-p 00000000 00:00 0 
8b780000-d7780000 ---p 00000000 00:00 0 
d7780000-dfb80000 rw-p 00000000 00:00 0 
dfb80000-100000000 ---p 00000000 00:00 0 
100000000-100120000 rw-p 00000000 00:00 0 
100120000-140000000 ---p 00000000 00:00 0 
7ff1b0000000-7ff1b0021000 rw-p 00000000 00:00 0 
7ff1b0021000-7ff1b4000000 ---p 00000000 00:00 0 
7ff1b4000000-7ff1b4021000 rw-p 00000000 00:00 0 
7ff1b4021000-7ff1b8000000 ---p 00000000 00:00 0 
7ff1b8000000-7ff1b8d22000 rw-p 00000000 00:00 0 
7ff1b8d22000-7ff1bc000000 ---p 00000000 00:00 0 
7ff1bc000000-7ff1bcc4b000 rw-p 00000000 00:00 0 
7ff1bcc4b000-7ff1c0000000 ---p 00000000 00:00 0 
7ff1c0000000-7ff1c0021000 rw-p 00000000 00:00 0 
7ff1c0021000-7ff1c4000000 ---p 00000000 00:00 0 
7ff1c4000000-7ff1c52d5000 rw-p 00000000 00:00 0 
7ff1c52d5000-7ff1c8000000 ---p 00000000 00:00 0 
7ff1c8000000-7ff1c8021000 rw-p 00000000 00:00 0 
7ff1c8021000-7ff1cc000000 ---p 00000000 00:00 0 
7ff1cc000000-7ff1cc021000 rw-p 00000000 00:00 0 
7ff1cc021000-7ff1d0000000 ---p 00000000 00:00 0 
7ff1d0000000-7ff1d0021000 rw-p 00000000 00:00 0 
7ff1d0021000-7ff1d4000000 ---p 00000000 00:00 0 
7ff1d4000000-7ff1d4021000 rw-p 00000000 00:00 0 
7ff1d4021000-7ff1d8000000 ---p 00000000 00:00 0 
7ff1d8000000-7ff1d8021000 rw-p 00000000 00:00 0 
7ff1d8021000-7ff1dc000000 ---p 00000000 00:00 0 
7ff1dcdd9000-7ff1dced9000 rw-p 00000000 00:00 0 
7ff1dced9000-7ff1dcfd9000 ---p 00000000 00:00 0 
7ff1dd241000-7ff1dd262000 r-xp 00000000 08:05 3277211                    /usr/lib/x86_64-linux-gnu/libgomp.so.1.0.0
7ff1dd262000-7ff1dd461000 ---p 00021000 08:05 3277211                    /usr/lib/x86_64-linux-gnu/libgomp.so.1.0.0
7ff1dd461000-7ff1dd462000 r--p 00020000 08:05 3277211                    /usr/lib/x86_64-linux-gnu/libgomp.so.1.0.0
7ff1dd462000-7ff1dd463000 rw-p 00021000 08:05 3277211                    /usr/lib/x86_64-linux-gnu/libgomp.so.1.0.0
7ff1dd463000-7ff1de40f000 r-xp 00000000 08:05 5387527                    /home/stanly/Projects/e0210-project/lib/z3/bin/libz3.so
7ff1de40f000-7ff1de60f000 ---p 00fac000 08:05 5387527                    /home/stanly/Projects/e0210-project/lib/z3/bin/libz3.so
7ff1de60f000-7ff1de636000 r--p 00fac000 08:05 5387527                    /home/stanly/Projects/e0210-project/lib/z3/bin/libz3.so
7ff1de636000-7ff1de639000 rw-p 00fd3000 08:05 5387527                    /home/stanly/Projects/e0210-project/lib/z3/bin/libz3.so
7ff1de639000-7ff1de63b000 rw-p 00000000 00:00 0 
7ff1de63b000-7ff1de663000 r-xp 00000000 08:05 5387518                    /home/stanly/Projects/e0210-project/lib/z3/bin/libz3java.so
7ff1de663000-7ff1de862000 ---p 00028000 08:05 5387518                    /home/stanly/Projects/e0210-project/lib/z3/bin/libz3java.so
7ff1de862000-7ff1de863000 r--p 00027000 08:05 5387518                    /home/stanly/Projects/e0210-project/lib/z3/bin/libz3java.so
7ff1de863000-7ff1de865000 rw-p 00028000 08:05 5387518                    /home/stanly/Projects/e0210-project/lib/z3/bin/libz3java.so
7ff1de865000-7ff1de914000 r--s 00a9c000 08:05 5114114                    /home/stanly/Projects/e0210-project/lib/soot-nightly-05082016.jar
7ff1de914000-7ff1de915000 ---p 00000000 00:00 0 
7ff1de915000-7ff1dea15000 rw-p 00000000 00:00 0 
7ff1dea15000-7ff1dea18000 ---p 00000000 00:00 0 
7ff1dea18000-7ff1deb16000 rw-p 00000000 00:00 0 
7ff1deb16000-7ff1deb19000 ---p 00000000 00:00 0 
7ff1deb19000-7ff1dec17000 rw-p 00000000 00:00 0 
7ff1dec17000-7ff1dec1a000 ---p 00000000 00:00 0 
7ff1dec1a000-7ff1ded18000 rw-p 00000000 00:00 0 
7ff1ded18000-7ff1ded1b000 ---p 00000000 00:00 0 
7ff1ded1b000-7ff1dee19000 rw-p 00000000 00:00 0 
7ff1dee19000-7ff1dee1c000 ---p 00000000 00:00 0 
7ff1dee1c000-7ff1def1a000 rw-p 00000000 00:00 0 
7ff1def1a000-7ff1df1f2000 r--p 00000000 08:05 3278680                    /usr/lib/locale/locale-archive
7ff1df1f2000-7ff1df1f5000 ---p 00000000 00:00 0 
7ff1df1f5000-7ff1df2f3000 rw-p 00000000 00:00 0 
7ff1df2f3000-7ff1df2f6000 ---p 00000000 00:00 0 
7ff1df2f6000-7ff1df3f4000 rw-p 00000000 00:00 0 
7ff1df3f4000-7ff1df3f5000 ---p 00000000 00:00 0 
7ff1df3f5000-7ff1e0000000 rw-p 00000000 00:00 0 
7ff1e0000000-7ff1e0021000 rw-p 00000000 00:00 0 
7ff1e0021000-7ff1e4000000 ---p 00000000 00:00 0 
7ff1e402a000-7ff1e402d000 r--s 0000a000 08:05 5125879                    /home/stanly/Projects/e0210-project/Testcases/project-3/project-3.jar
7ff1e402d000-7ff1e8000000 rw-p 00000000 00:00 0 
7ff1e8000000-7ff1e8021000 rw-p 00000000 00:00 0 
7ff1e8021000-7ff1ec000000 ---p 00000000 00:00 0 
7ff1ec000000-7ff1ec003000 r--s 0000a000 08:05 5125879                    /home/stanly/Projects/e0210-project/Testcases/project-3/project-3.jar
7ff1ec003000-7ff1ec008000 r--s 002f9000 08:05 3808465                    /usr/lib/jvm/java-8-openjdk-amd64/jre/lib/charsets.jar
7ff1ec008000-7ff1ec00b000 r--s 00015000 08:05 3808468                    /usr/lib/jvm/java-8-openjdk-amd64/jre/lib/jce.jar
7ff1ec00b000-7ff1ec00f000 r--s 00097000 08:05 3808472                    /usr/lib/jvm/java-8-openjdk-amd64/jre/lib/jsse.jar
7ff1ec00f000-7ff1ec022000 r--s 00346000 08:05 3808457                    /usr/lib/jvm/java-8-openjdk-amd64/jre/lib/resources.jar
7ff1ec022000-7ff1ec025000 r--s 00024000 08:05 5387534                    /home/stanly/Projects/e0210-project/lib/z3/bin/com.microsoft.z3.jar
7ff1ec025000-7ff1ec027000 r--s 00009000 08:05 5122766                    /home/stanly/Projects/e0210-project/lib/jgrapht-ext-0.9.2.jar
7ff1ec027000-7ff1ec02f000 r--s 00059000 08:05 5114113                    /home/stanly/Projects/e0210-project/lib/jgrapht-core-0.9.2.jar
7ff1ec02f000-7ff1ec039000 r--s 00116000 08:05 4350355                    /usr/lib/jvm/java-8-openjdk-amd64/jre/lib/ext/localedata.jar
7ff1ec039000-7ff1ec03b000 r--s 00008000 08:05 4350354                    /usr/lib/jvm/java-8-openjdk-amd64/jre/lib/ext/sunec.jar
7ff1ec03b000-7ff1ec03f000 r--s 00037000 08:05 4350352                    /usr/lib/jvm/java-8-openjdk-amd64/jre/lib/ext/sunpkcs11.jar
7ff1ec03f000-7ff1ec044000 r--s 0003b000 08:05 4350351                    /usr/lib/jvm/java-8-openjdk-amd64/jre/lib/ext/sunjce_provider.jar
7ff1ec044000-7ff1ec05f000 r--s 00394000 08:05 4350349                    /usr/lib/jvm/java-8-openjdk-amd64/jre/lib/ext/cldrdata.jar
7ff1ec05f000-7ff1ec1ef000 rw-p 00000000 00:00 0 
7ff1ec1ef000-7ff1ec3bd000 r--s 03bf1000 08:05 3808462                    /usr/lib/jvm/java-8-openjdk-amd64/jre/lib/rt.jar
7ff1ec3bd000-7ff1ed000000 rw-p 00000000 00:00 0 
7ff1ed000000-7ff1ed580000 rwxp 00000000 00:00 0 
7ff1ed580000-7ff1fc000000 ---p 00000000 00:00 0 
7ff1fc000000-7ff1fc6d6000 rw-p 00000000 00:00 0 
7ff1fc6d6000-7ff200000000 ---p 00000000 00:00 0 
7ff200001000-7ff200043000 rw-p 00000000 00:00 0 
7ff200043000-7ff200044000 ---p 00000000 00:00 0 
7ff200044000-7ff200144000 rw-p 00000000 00:00 0 
7ff200144000-7ff200145000 ---p 00000000 00:00 0 
7ff200145000-7ff200245000 rw-p 00000000 00:00 0 
7ff200245000-7ff200246000 ---p 00000000 00:00 0 
7ff200246000-7ff200346000 rw-p 00000000 00:00 0 
7ff200346000-7ff200347000 ---p 00000000 00:00 0 
7ff200347000-7ff200470000 rw-p 00000000 00:00 0 
7ff200470000-7ff2006d0000 ---p 00000000 00:00 0 
7ff2006d0000-7ff2006f9000 rw-p 00000000 00:00 0 
7ff2006f9000-7ff200958000 ---p 00000000 00:00 0 
7ff200958000-7ff20099b000 rw-p 00000000 00:00 0 
7ff20099b000-7ff200a9d000 ---p 00000000 00:00 0 
7ff200a9d000-7ff200ab4000 rw-p 00000000 00:00 0 
7ff200ab4000-7ff200e5e000 ---p 00000000 00:00 0 
7ff200e5e000-7ff200e66000 r-xp 00000000 08:05 3948090                    /usr/lib/jvm/java-8-openjdk-amd64/jre/lib/amd64/libzip.so
7ff200e66000-7ff201065000 ---p 00008000 08:05 3948090                    /usr/lib/jvm/java-8-openjdk-amd64/jre/lib/amd64/libzip.so
7ff201065000-7ff201066000 r--p 00007000 08:05 3948090                    /usr/lib/jvm/java-8-openjdk-amd64/jre/lib/amd64/libzip.so
7ff201066000-7ff201067000 rw-p 00008000 08:05 3948090                    /usr/lib/jvm/java-8-openjdk-amd64/jre/lib/amd64/libzip.so
7ff201067000-7ff201072000 r-xp 00000000 08:05 2889535                    /lib/x86_64-linux-gnu/libnss_files-2.23.so
7ff201072000-7ff201271000 ---p 0000b000 08:05 2889535                    /lib/x86_64-linux-gnu/libnss_files-2.23.so
7ff201271000-7ff201272000 r--p 0000a000 08:05 2889535                    /lib/x86_64-linux-gnu/libnss_files-2.23.so
7ff201272000-7ff201273000 rw-p 0000b000 08:05 2889535                    /lib/x86_64-linux-gnu/libnss_files-2.23.so
7ff201273000-7ff201279000 rw-p 00000000 00:00 0 
7ff201279000-7ff201284000 r-xp 00000000 08:05 2889532                    /lib/x86_64-linux-gnu/libnss_nis-2.23.so
7ff201284000-7ff201483000 ---p 0000b000 08:05 2889532                    /lib/x86_64-linux-gnu/libnss_nis-2.23.so
7ff201483000-7ff201484000 r--p 0000a000 08:05 2889532                    /lib/x86_64-linux-gnu/libnss_nis-2.23.so
7ff201484000-7ff201485000 rw-p 0000b000 08:05 2889532                    /lib/x86_64-linux-gnu/libnss_nis-2.23.so
7ff201485000-7ff20149b000 r-xp 00000000 08:05 2889530                    /lib/x86_64-linux-gnu/libnsl-2.23.so
7ff20149b000-7ff20169a000 ---p 00016000 08:05 2889530                    /lib/x86_64-linux-gnu/libnsl-2.23.so
7ff20169a000-7ff20169b000 r--p 00015000 08:05 2889530                    /lib/x86_64-linux-gnu/libnsl-2.23.so
7ff20169b000-7ff20169c000 rw-p 00016000 08:05 2889530                    /lib/x86_64-linux-gnu/libnsl-2.23.so
7ff20169c000-7ff20169e000 rw-p 00000000 00:00 0 
7ff20169e000-7ff2016a6000 r-xp 00000000 08:05 2889528                    /lib/x86_64-linux-gnu/libnss_compat-2.23.so
7ff2016a6000-7ff2018a5000 ---p 00008000 08:05 2889528                    /lib/x86_64-linux-gnu/libnss_compat-2.23.so
7ff2018a5000-7ff2018a6000 r--p 00007000 08:05 2889528                    /lib/x86_64-linux-gnu/libnss_compat-2.23.so
7ff2018a6000-7ff2018a7000 rw-p 00008000 08:05 2889528                    /lib/x86_64-linux-gnu/libnss_compat-2.23.so
7ff2018a7000-7ff2018d4000 r-xp 00000000 08:05 3948085                    /usr/lib/jvm/java-8-openjdk-amd64/jre/lib/amd64/libjava.so
7ff2018d4000-7ff201ad3000 ---p 0002d000 08:05 3948085                    /usr/lib/jvm/java-8-openjdk-amd64/jre/lib/amd64/libjava.so
7ff201ad3000-7ff201ad4000 r--p 0002c000 08:05 3948085                    /usr/lib/jvm/java-8-openjdk-amd64/jre/lib/amd64/libjava.so
7ff201ad4000-7ff201ad6000 rw-p 0002d000 08:05 3948085                    /usr/lib/jvm/java-8-openjdk-amd64/jre/lib/amd64/libjava.so
7ff201ad6000-7ff201ae5000 r-xp 00000000 08:05 3948088                    /usr/lib/jvm/java-8-openjdk-amd64/jre/lib/amd64/libverify.so
7ff201ae5000-7ff201ce4000 ---p 0000f000 08:05 3948088                    /usr/lib/jvm/java-8-openjdk-amd64/jre/lib/amd64/libverify.so
7ff201ce4000-7ff201ce6000 r--p 0000e000 08:05 3948088                    /usr/lib/jvm/java-8-openjdk-amd64/jre/lib/amd64/libverify.so
7ff201ce6000-7ff201ce7000 rw-p 00010000 08:05 3948088                    /usr/lib/jvm/java-8-openjdk-amd64/jre/lib/amd64/libverify.so
7ff201ce7000-7ff201cee000 r-xp 00000000 08:05 2889544                    /lib/x86_64-linux-gnu/librt-2.23.so
7ff201cee000-7ff201eed000 ---p 00007000 08:05 2889544                    /lib/x86_64-linux-gnu/librt-2.23.so
7ff201eed000-7ff201eee000 r--p 00006000 08:05 2889544                    /lib/x86_64-linux-gnu/librt-2.23.so
7ff201eee000-7ff201eef000 rw-p 00007000 08:05 2889544                    /lib/x86_64-linux-gnu/librt-2.23.so
7ff201eef000-7ff201f05000 r-xp 00000000 08:05 2887888                    /lib/x86_64-linux-gnu/libgcc_s.so.1
7ff201f05000-7ff202104000 ---p 00016000 08:05 2887888                    /lib/x86_64-linux-gnu/libgcc_s.so.1
7ff202104000-7ff202105000 rw-p 00015000 08:05 2887888                    /lib/x86_64-linux-gnu/libgcc_s.so.1
7ff202105000-7ff20220d000 r-xp 00000000 08:05 2889541                    /lib/x86_64-linux-gnu/libm-2.23.so
7ff20220d000-7ff20240c000 ---p 00108000 08:05 2889541                    /lib/x86_64-linux-gnu/libm-2.23.so
7ff20240c000-7ff20240d000 r--p 00107000 08:05 2889541                    /lib/x86_64-linux-gnu/libm-2.23.so
7ff20240d000-7ff20240e000 rw-p 00108000 08:05 2889541                    /lib/x86_64-linux-gnu/libm-2.23.so
7ff20240e000-7ff202580000 r-xp 00000000 08:05 3277624                    /usr/lib/x86_64-linux-gnu/libstdc++.so.6.0.21
7ff202580000-7ff202780000 ---p 00172000 08:05 3277624                    /usr/lib/x86_64-linux-gnu/libstdc++.so.6.0.21
7ff202780000-7ff20278a000 r--p 00172000 08:05 3277624                    /usr/lib/x86_64-linux-gnu/libstdc++.so.6.0.21
7ff20278a000-7ff20278c000 rw-p 0017c000 08:05 3277624                    /usr/lib/x86_64-linux-gnu/libstdc++.so.6.0.21
7ff20278c000-7ff202790000 rw-p 00000000 00:00 0 
7ff202790000-7ff2033df000 r-xp 00000000 08:05 3948091                    /usr/lib/jvm/java-8-openjdk-amd64/jre/lib/amd64/server/libjvm.so
7ff2033df000-7ff2035de000 ---p 00c4f000 08:05 3948091                    /usr/lib/jvm/java-8-openjdk-amd64/jre/lib/amd64/server/libjvm.so
7ff2035de000-7ff203671000 r--p 00c4e000 08:05 3948091                    /usr/lib/jvm/java-8-openjdk-amd64/jre/lib/amd64/server/libjvm.so
7ff203671000-7ff20369a000 rw-p 00ce1000 08:05 3948091                    /usr/lib/jvm/java-8-openjdk-amd64/jre/lib/amd64/server/libjvm.so
7ff20369a000-7ff2036ca000 rw-p 00000000 00:00 0 
7ff2036ca000-7ff2036e2000 r-xp 00000000 08:05 2889548                    /lib/x86_64-linux-gnu/libpthread-2.23.so
7ff2036e2000-7ff2038e1000 ---p 00018000 08:05 2889548                    /lib/x86_64-linux-gnu/libpthread-2.23.so
7ff2038e1000-7ff2038e2000 r--p 00017000 08:05 2889548                    /lib/x86_64-linux-gnu/libpthread-2.23.so
7ff2038e2000-7ff2038e3000 rw-p 00018000 08:05 2889548                    /lib/x86_64-linux-gnu/libpthread-2.23.so
7ff2038e3000-7ff2038e7000 rw-p 00000000 00:00 0 
7ff2038e7000-7ff2038ea000 r-xp 00000000 08:05 2889550                    /lib/x86_64-linux-gnu/libdl-2.23.so
7ff2038ea000-7ff203ae9000 ---p 00003000 08:05 2889550                    /lib/x86_64-linux-gnu/libdl-2.23.so
7ff203ae9000-7ff203aea000 r--p 00002000 08:05 2889550                    /lib/x86_64-linux-gnu/libdl-2.23.so
7ff203aea000-7ff203aeb000 rw-p 00003000 08:05 2889550                    /lib/x86_64-linux-gnu/libdl-2.23.so
7ff203aeb000-7ff203b04000 r-xp 00000000 08:05 2884399                    /lib/x86_64-linux-gnu/libz.so.1.2.8
7ff203b04000-7ff203d03000 ---p 00019000 08:05 2884399                    /lib/x86_64-linux-gnu/libz.so.1.2.8
7ff203d03000-7ff203d04000 r--p 00018000 08:05 2884399                    /lib/x86_64-linux-gnu/libz.so.1.2.8
7ff203d04000-7ff203d05000 rw-p 00019000 08:05 2884399                    /lib/x86_64-linux-gnu/libz.so.1.2.8
7ff203d05000-7ff203ec4000 r-xp 00000000 08:05 2889549                    /lib/x86_64-linux-gnu/libc-2.23.so
7ff203ec4000-7ff2040c4000 ---p 001bf000 08:05 2889549                    /lib/x86_64-linux-gnu/libc-2.23.so
7ff2040c4000-7ff2040c8000 r--p 001bf000 08:05 2889549                    /lib/x86_64-linux-gnu/libc-2.23.so
7ff2040c8000-7ff2040ca000 rw-p 001c3000 08:05 2889549                    /lib/x86_64-linux-gnu/libc-2.23.so
7ff2040ca000-7ff2040ce000 rw-p 00000000 00:00 0 
7ff2040ce000-7ff2040db000 r-xp 00000000 08:05 4066541                    /usr/lib/jvm/java-8-openjdk-amd64/jre/lib/amd64/jli/libjli.so
7ff2040db000-7ff2042db000 ---p 0000d000 08:05 4066541                    /usr/lib/jvm/java-8-openjdk-amd64/jre/lib/amd64/jli/libjli.so
7ff2042db000-7ff2042dc000 r--p 0000d000 08:05 4066541                    /usr/lib/jvm/java-8-openjdk-amd64/jre/lib/amd64/jli/libjli.so
7ff2042dc000-7ff2042dd000 rw-p 0000e000 08:05 4066541                    /usr/lib/jvm/java-8-openjdk-amd64/jre/lib/amd64/jli/libjli.so
7ff2042dd000-7ff204303000 r-xp 00000000 08:05 2889545                    /lib/x86_64-linux-gnu/ld-2.23.so
7ff204303000-7ff204304000 r--s 00010000 08:05 4350356                    /usr/lib/jvm/java-8-openjdk-amd64/jre/lib/ext/zipfs.jar
7ff204304000-7ff204306000 r--s 00001000 08:05 4350358                    /usr/lib/jvm/java-8-openjdk-amd64/jre/lib/ext/dnsns.jar
7ff204306000-7ff204307000 r--s 0000a000 08:05 4350353                    /usr/lib/jvm/java-8-openjdk-amd64/jre/lib/ext/jaccess.jar
7ff204307000-7ff20430a000 r--s 0000f000 08:05 4350357                    /usr/lib/jvm/java-8-openjdk-amd64/jre/lib/ext/icedtea-sound.jar
7ff20430a000-7ff2043d5000 rw-p 00000000 00:00 0 
7ff2043d5000-7ff2043d8000 ---p 00000000 00:00 0 
7ff2043d8000-7ff2044db000 rw-p 00000000 00:00 0 
7ff2044db000-7ff2044f6000 r--s 001d5000 08:05 4350350                    /usr/lib/jvm/java-8-openjdk-amd64/jre/lib/ext/nashorn.jar
7ff2044f6000-7ff2044fe000 rw-s 00000000 08:05 2235243                    /tmp/hsperfdata_stanly/26501
7ff2044fe000-7ff2044ff000 rw-p 00000000 00:00 0 
7ff2044ff000-7ff204500000 r--p 00000000 00:00 0 
7ff204500000-7ff204502000 rw-p 00000000 00:00 0 
7ff204502000-7ff204503000 r--p 00025000 08:05 2889545                    /lib/x86_64-linux-gnu/ld-2.23.so
7ff204503000-7ff204504000 rw-p 00026000 08:05 2889545                    /lib/x86_64-linux-gnu/ld-2.23.so
7ff204504000-7ff204505000 rw-p 00000000 00:00 0 
7fff6b5cf000-7fff6b5f0000 rw-p 00000000 00:00 0                          [stack]
7fff6b5f4000-7fff6b5f6000 r--p 00000000 00:00 0                          [vvar]
7fff6b5f6000-7fff6b5f8000 r-xp 00000000 00:00 0                          [vdso]
ffffffffff600000-ffffffffff601000 r-xp 00000000 00:00 0                  [vsyscall]

VM Arguments:
java_command: e0210.TraceMaker project-3 test11
java_class_path (initial): /home/stanly/Projects/e0210-project/bin:/home/stanly/Projects/e0210-project/lib/soot-nightly-05082016.jar:/home/stanly/Projects/e0210-project/lib/jgrapht-core-0.9.2.jar:/home/stanly/Projects/e0210-project/lib/jgrapht-ext-0.9.2.jar:/home/stanly/Projects/e0210-project/lib/z3/bin/com.microsoft.z3.jar
Launcher Type: SUN_STANDARD

Environment Variables:
PATH=/usr/local/sbin:/usr/local/bin:/usr/sbin:/usr/bin:/sbin:/bin:/usr/games:/usr/local/games:/home/stanly/PLDI/Seminar/4 Stanly - Chuck_Seminar1/Source Files/chuck-1.3.5.2/src:/home/stanly/Projects/e0210-project/lib/z3-4.4.1-x64-ubuntu-14.04/bin:/snap/bin
LD_LIBRARY_PATH=:/home/stanly/Projects/e0210-project/lib/z3-4.4.1-x64-ubuntu-14.04/bin:/home/stanly/Projects/e0210-project/lib/z3/bin
SHELL=/bin/bash
DISPLAY=:0

Signal Handlers:
SIGSEGV: [libjvm.so+0xa65880], sa_mask[0]=11111111011111111101111111111110, sa_flags=SA_RESTART|SA_SIGINFO
SIGBUS: [libjvm.so+0xa65880], sa_mask[0]=11111111011111111101111111111110, sa_flags=SA_RESTART|SA_SIGINFO
SIGFPE: [libjvm.so+0x8af1c0], sa_mask[0]=11111111011111111101111111111110, sa_flags=SA_RESTART|SA_SIGINFO
SIGPIPE: [libjvm.so+0x8af1c0], sa_mask[0]=11111111011111111101111111111110, sa_flags=SA_RESTART|SA_SIGINFO
SIGXFSZ: [libjvm.so+0x8af1c0], sa_mask[0]=11111111011111111101111111111110, sa_flags=SA_RESTART|SA_SIGINFO
SIGILL: [libjvm.so+0x8af1c0], sa_mask[0]=11111111011111111101111111111110, sa_flags=SA_RESTART|SA_SIGINFO
SIGUSR1: SIG_DFL, sa_mask[0]=00000000000000000000000000000000, sa_flags=none
SIGUSR2: [libjvm.so+0x8af070], sa_mask[0]=00100000000000000000000000000000, sa_flags=SA_RESTART|SA_SIGINFO
SIGHUP: [libjvm.so+0x8af540], sa_mask[0]=11111111011111111101111111111110, sa_flags=SA_RESTART|SA_SIGINFO
SIGINT: [libjvm.so+0x8af540], sa_mask[0]=11111111011111111101111111111110, sa_flags=SA_RESTART|SA_SIGINFO
SIGTERM: [libjvm.so+0x8af540], sa_mask[0]=11111111011111111101111111111110, sa_flags=SA_RESTART|SA_SIGINFO
SIGQUIT: [libjvm.so+0x8af540], sa_mask[0]=11111111011111111101111111111110, sa_flags=SA_RESTART|SA_SIGINFO


---------------  S Y S T E M  ---------------

OS:DISTRIB_ID=Ubuntu
DISTRIB_RELEASE=16.04
DISTRIB_CODENAME=xenial
DISTRIB_DESCRIPTION="Ubuntu 16.04.1 LTS"

uname:Linux 4.4.0-47-generic #68-Ubuntu SMP Wed Oct 26 19:39:52 UTC 2016 x86_64
libc:glibc 2.23 NPTL 2.23 
rlimit: STACK infinity, CORE 0k, NPROC 30966, NOFILE 65536, AS infinity
load average:2.12 1.05 0.66

/proc/meminfo:
MemTotal:        7967768 kB
MemFree:          360688 kB
MemAvailable:    2525008 kB
Buffers:          318484 kB
Cached:          2604924 kB
SwapCached:          304 kB
Active:          5170100 kB
Inactive:        2016364 kB
Active(anon):    3821312 kB
Inactive(anon):  1122364 kB
Active(file):    1348788 kB
Inactive(file):   894000 kB
Unevictable:         184 kB
Mlocked:             184 kB
SwapTotal:       8177660 kB
SwapFree:        8171128 kB
Dirty:               660 kB
Writeback:             0 kB
AnonPages:       4263052 kB
Mapped:           604468 kB
Shmem:            680620 kB
Slab:             274964 kB
SReclaimable:     226428 kB
SUnreclaim:        48536 kB
KernelStack:       13696 kB
PageTables:        61076 kB
NFS_Unstable:          0 kB
Bounce:                0 kB
WritebackTmp:          0 kB
CommitLimit:    12161544 kB
Committed_AS:   10475348 kB
VmallocTotal:   34359738367 kB
VmallocUsed:           0 kB
VmallocChunk:          0 kB
HardwareCorrupted:     0 kB
AnonHugePages:   2764800 kB
CmaTotal:              0 kB
CmaFree:               0 kB
HugePages_Total:       0
HugePages_Free:        0
HugePages_Rsvd:        0
HugePages_Surp:        0
Hugepagesize:       2048 kB
DirectMap4k:      258036 kB
DirectMap2M:     7921664 kB


CPU:total 4 (2 cores per cpu, 2 threads per core) family 6 model 58 stepping 9, cmov, cx8, fxsr, mmx, sse, sse2, sse3, ssse3, sse4.1, sse4.2, popcnt, avx, clmul, erms, ht, tsc, tscinvbit, tscinv

/proc/cpuinfo:
processor	: 0
vendor_id	: GenuineIntel
cpu family	: 6
model		: 58
model name	: Intel(R) Core(TM) i5-3337U CPU @ 1.80GHz
stepping	: 9
microcode	: 0x15
cpu MHz		: 2562.679
cache size	: 3072 KB
physical id	: 0
siblings	: 4
core id		: 0
cpu cores	: 2
apicid		: 0
initial apicid	: 0
fpu		: yes
fpu_exception	: yes
cpuid level	: 13
wp		: yes
flags		: fpu vme de pse tsc msr pae mce cx8 apic sep mtrr pge mca cmov pat pse36 clflush dts acpi mmx fxsr sse sse2 ss ht tm pbe syscall nx rdtscp lm constant_tsc arch_perfmon pebs bts rep_good nopl xtopology nonstop_tsc aperfmperf eagerfpu pni pclmulqdq dtes64 monitor ds_cpl vmx est tm2 ssse3 cx16 xtpr pdcm pcid sse4_1 sse4_2 x2apic popcnt tsc_deadline_timer xsave avx f16c rdrand lahf_lm epb tpr_shadow vnmi flexpriority ept vpid fsgsbase smep erms xsaveopt dtherm ida arat pln pts
bugs		:
bogomips	: 3591.75
clflush size	: 64
cache_alignment	: 64
address sizes	: 36 bits physical, 48 bits virtual
power management:

processor	: 1
vendor_id	: GenuineIntel
cpu family	: 6
model		: 58
model name	: Intel(R) Core(TM) i5-3337U CPU @ 1.80GHz
stepping	: 9
microcode	: 0x15
cpu MHz		: 2499.960
cache size	: 3072 KB
physical id	: 0
siblings	: 4
core id		: 0
cpu cores	: 2
apicid		: 1
initial apicid	: 1
fpu		: yes
fpu_exception	: yes
cpuid level	: 13
wp		: yes
flags		: fpu vme de pse tsc msr pae mce cx8 apic sep mtrr pge mca cmov pat pse36 clflush dts acpi mmx fxsr sse sse2 ss ht tm pbe syscall nx rdtscp lm constant_tsc arch_perfmon pebs bts rep_good nopl xtopology nonstop_tsc aperfmperf eagerfpu pni pclmulqdq dtes64 monitor ds_cpl vmx est tm2 ssse3 cx16 xtpr pdcm pcid sse4_1 sse4_2 x2apic popcnt tsc_deadline_timer xsave avx f16c rdrand lahf_lm epb tpr_shadow vnmi flexpriority ept vpid fsgsbase smep erms xsaveopt dtherm ida arat pln pts
bugs		:
bogomips	: 3591.75
clflush size	: 64
cache_alignment	: 64
address sizes	: 36 bits physical, 48 bits virtual
power management:

processor	: 2
vendor_id	: GenuineIntel
cpu family	: 6
model		: 58
model name	: Intel(R) Core(TM) i5-3337U CPU @ 1.80GHz
stepping	: 9
microcode	: 0x15
cpu MHz		: 2499.960
cache size	: 3072 KB
physical id	: 0
siblings	: 4
core id		: 1
cpu cores	: 2
apicid		: 2
initial apicid	: 2
fpu		: yes
fpu_exception	: yes
cpuid level	: 13
wp		: yes
flags		: fpu vme de pse tsc msr pae mce cx8 apic sep mtrr pge mca cmov pat pse36 clflush dts acpi mmx fxsr sse sse2 ss ht tm pbe syscall nx rdtscp lm constant_tsc arch_perfmon pebs bts rep_good nopl xtopology nonstop_tsc aperfmperf eagerfpu pni pclmulqdq dtes64 monitor ds_cpl vmx est tm2 ssse3 cx16 xtpr pdcm pcid sse4_1 sse4_2 x2apic popcnt tsc_deadline_timer xsave avx f16c rdrand lahf_lm epb tpr_shadow vnmi flexpriority ept vpid fsgsbase smep erms xsaveopt dtherm ida arat pln pts
bugs		:
bogomips	: 3591.75
clflush size	: 64
cache_alignment	: 64
address sizes	: 36 bits physical, 48 bits virtual
power management:

processor	: 3
vendor_id	: GenuineIntel
cpu family	: 6
model		: 58
model name	: Intel(R) Core(TM) i5-3337U CPU @ 1.80GHz
stepping	: 9
microcode	: 0x15
cpu MHz		: 2499.960
cache size	: 3072 KB
physical id	: 0
siblings	: 4
core id		: 1
cpu cores	: 2
apicid		: 3
initial apicid	: 3
fpu		: yes
fpu_exception	: yes
cpuid level	: 13
wp		: yes
flags		: fpu vme de pse tsc msr pae mce cx8 apic sep mtrr pge mca cmov pat pse36 clflush dts acpi mmx fxsr sse sse2 ss ht tm pbe syscall nx rdtscp lm constant_tsc arch_perfmon pebs bts rep_good nopl xtopology nonstop_tsc aperfmperf eagerfpu pni pclmulqdq dtes64 monitor ds_cpl vmx est tm2 ssse3 cx16 xtpr pdcm pcid sse4_1 sse4_2 x2apic popcnt tsc_deadline_timer xsave avx f16c rdrand lahf_lm epb tpr_shadow vnmi flexpriority ept vpid fsgsbase smep erms xsaveopt dtherm ida arat pln pts
bugs		:
bogomips	: 3591.75
clflush size	: 64
cache_alignment	: 64
address sizes	: 36 bits physical, 48 bits virtual
power management:



Memory: 4k page, physical 7967768k(360688k free), swap 8177660k(8171128k free)

vm_info: OpenJDK 64-Bit Server VM (25.111-b14) for linux-amd64 JRE (1.8.0_111-8u111-b14-2ubuntu0.16.04.2-b14), built on Oct 27 2016 18:10:19 by "buildd" with gcc 5.4.0 20160609

time: Tue Nov 15 23:29:38 2016
elapsed time: 2 seconds (0d 0h 0m 2s)

